^C:\USERS\ROG\SOURCE\REPOS\PROJECT5RECURSIVESTRINGS\DEBUG\PROJECT5RECURSIVESTRINGS.OBJ|C:\USERS\ROG\SOURCE\REPOS\PROJECT5RECURSIVESTRINGS\DEBUG\STRINGTESTER.OBJ
C:\USERS\ROG\SOURCE\REPOS\PROJECT5RECURSIVESTRINGS\DEBUG\PROJECT5RECURSIVESTRINGS.EXE
C:\USERS\ROG\SOURCE\REPOS\PROJECT5RECURSIVESTRINGS\DEBUG\PROJECT5RECURSIVESTRINGS.ILK
C:\USERS\ROG\SOURCE\REPOS\PROJECT5RECURSIVESTRINGS\DEBUG\PROJECT5RECURSIVESTRINGS.PDB
